…
**9. Each course seems to have used a different subset of the nine
evaluation questions. How many teacher-course combinations asked all
nine questions?**

``` r
# code chunk for Q8
teacher_evals_clean |>
  group_by(teacher_id, course_id) |>
  count() |>
  filter(n >= 9)
```

    # A tibble: 48 × 3
    # Groups:   teacher_id, course_id [48]
       teacher_id course_id            n
       <chr>      <chr>            <int>
     1 102390     PAM1SP05PA-Z20       9
     2 3485       MNB5NP04MN-Z20-w     9
     3 3503       FAB1NP-SJO-A         9
     4 3521       CII3SP12CI-Z17       9
     5 3614       FAB1NP-SJO-A         9
     6 3614       MN-B1SP-SJO-A        9
     7 3662       CII2SE02CI-L19       9
     8 37025      ECB3SE01EC-Z20       9
     9 37035      MNB1NP-SJO-A         9
    10 37068      IRB5SP04-PDW         9
    # ℹ 38 more rows
…
``` r
# code chunk for Q9
teacher_evals_clean |>
  group_by(teacher_id) |>
  filter(question_no == "901") |> 
  mutate(avg_score = mean(SET_score_avg)) |>
  select(avg_score) |>
  arrange(desc(avg_score))
```

    Adding missing grouping variables: `teacher_id`

    # A tibble: 744 × 2
    # Groups:   teacher_id [264]
       teacher_id avg_score
       <chr>          <dbl>
     1 84689              5
     2 42362              5
     3 42362              5
     4 51145              5
     5 82918              5
     6 40711              5
     7 50746              5
     8 43898              5
     9 60647              5
    10 59546              5
    # ℹ 734 more rows
…
**11. Which instructors with one year of experience had the highest and
lowest average percentage of students failing in the current semester
across all their courses?**

``` r
# code chunk for Q10
teacher_evals_clean |>
  filter(seniority == 1) |>
  arrange(!desc(percent_failed_cur))
```

    # A tibble: 405 × 10
       course_id   teacher_id question_no no_participants resp_share SET_score_avg
       <chr>       <chr>      <chr>                 <dbl>      <dbl>         <dbl>
     1 0000-SEM-SE 84689      901                      22     0.0909          5   
     2 0000-SEM-SE 84689      902                      22     0.0909          5   
     3 0000-SEM-SE 84689      903                      22     0.0909          5   
     4 0000-SEM-SE 84689      904                      22     0.0909          5   
     5 0000-SEM-SE 84689      905                      22     0.0909          4.5 
     6 0000-SEM-SE 84689      906                      22     0.0909          5   
     7 0000-SEM-SE 84689      907                      22     0.0909          5   
     8 0000-SEM-SE 84689      909                      22     0.0909          5   
     9 0000-SEM-SE 101508     901                      23     0.522           4.5 
    10 0000-SEM-SE 101508     902                      23     0.522           4.42
    # ℹ 395 more rows
    # ℹ 4 more variables: percent_failed_cur <dbl>, academic_degree <chr>,
    #   seniority <dbl>, sex <chr>
…
``` r
# code chunk for Q11
teacher_evals_clean |>
  filter(sex == "female", academic_degree %in% c("dr", "prof")) |>
  group_by(course_id, teacher_id) |>
  mutate(avg_resp_share = mean(resp_share)) |>
  select(avg_resp_share) |>
  arrange(desc(avg_resp_share))
```

    Adding missing grouping variables: `course_id`, `teacher_id`

    # A tibble: 2,092 × 3
    # Groups:   course_id, teacher_id [334]
       course_id   teacher_id avg_resp_share
       <chr>       <chr>               <dbl>
     1 0000-SEM-SE 101508              0.522
     2 0000-SEM-SE 101508              0.522
     3 0000-SEM-SE 101508              0.522
     4 0000-SEM-SE 101508              0.522
     5 0000-SEM-SE 101508              0.522
     6 0000-SEM-SE 101508              0.522
     7 PPM1NP001P  76394               0.490
     8 PPM1NP001P  76394               0.490
     9 PPM1NP001P  76394               0.490
    10 PPM1NP001P  76394               0.490
    # ℹ 2,082 more rows
…
